\BOOKMARK [1][-]{section.1}{Choix de l'implémentation}{}% 1
\BOOKMARK [1][-]{section.2}{Les\040scripts\040et\040choix\040de\040paramettres\040pour\040mpi}{}% 2
\BOOKMARK [2][-]{subsection.2.1}{Les\040scripts}{section.2}% 3
\BOOKMARK [2][-]{subsection.2.2}{Choix\040des\040nombres\040de\040processus,\040des\040nombres\040de\040processus\040par\040machine,\040et\040du\040nombre\040de\040machines}{section.2}% 4
\BOOKMARK [1][-]{section.3}{Explication\040des\040mesures\040obtenues}{}% 5
\BOOKMARK [1][-]{section.4}{Dificultés rencontrés}{}% 6
